cpu_stage5/cpu_stage5.sim/sim_1/behav/xsim/cpu.vcd
$date
   Tue Apr 21 15:35:27 2026
$end

$version
  2025.2
  $dumpfile ("cpu.vcd") 
$end

$timescale
  1ps
$end

$scope module top_tb $end
$var reg 1 ! clk $end
$var wire 8 " dbg_rs1 [7:0] $end
$var wire 8 # dbg_rs2 [7:0] $end
$var wire 8 $ dbg_alu [7:0] $end
$scope module uut $end
$var wire 1 % clk $end
$var wire 8 " dbg_rs1 [7:0] $end
$var wire 8 # dbg_rs2 [7:0] $end
$var wire 8 $ dbg_alu [7:0] $end
$var wire 8 & rd1 [7:0] $end
$var wire 8 ' rd2 [7:0] $end
$var wire 8 ( alu_out [7:0] $end
$var wire 4 ) pc [3:0] $end
$var wire 9 * instr [8:0] $end
$var wire 3 + rs1 [2:0] $end
$var wire 3 , rs2 [2:0] $end
$var wire 3 - rd [2:0] $end
$var wire 2 . op [1:0] $end
$var wire 1 / RegWrite $end
$var wire 8 0 wd [7:0] $end
$scope module pc_inst $end
$var wire 1 % clk $end
$var reg 4 1 pc [3:0] $end
$upscope $end
$scope module imem_inst $end
$var wire 4 ) addr [3:0] $end
$var wire 9 * instr [8:0] $end
$var integer 32 2 i [31:0] $end
$upscope $end
$scope module dec_inst $end
$var wire 9 * instr [8:0] $end
$var wire 2 . op [1:0] $end
$var wire 3 + rs1 [2:0] $end
$var wire 3 , rs2 [2:0] $end
$var wire 3 - rd [2:0] $end
$upscope $end
$scope module rf $end
$var wire 1 % clk $end
$var wire 3 + rs1 [2:0] $end
$var wire 3 , rs2 [2:0] $end
$var wire 8 & rd1 [7:0] $end
$var wire 8 ' rd2 [7:0] $end
$var wire 1 / RegWrite $end
$var wire 3 - rd [2:0] $end
$var wire 8 0 wd [7:0] $end
$var integer 32 3 i [31:0] $end
$upscope $end
$scope module alu $end
$var wire 8 & A [7:0] $end
$var wire 8 ' B [7:0] $end
$var wire 2 4 OP [1:0] $end
$var reg 8 5 Sum [7:0] $end
$var reg 1 6 OV $end
$var wire 8 7 preNewB [7:0] $end
$var wire 1 8 preCout $end
$var wire 8 9 adder_out [7:0] $end
$var wire 1 : adder_OV $end
$scope module preprocessing $end
$var wire 8 ' B [7:0] $end
$var wire 1 ; OP $end
$var wire 8 7 newB [7:0] $end
$var wire 1 8 Cout $end
$upscope $end
$scope module adder $end
$var wire 8 & A [7:0] $end
$var wire 8 7 B [7:0] $end
$var wire 1 8 Cin $end
$var wire 8 9 Sum [7:0] $end
$var wire 1 : OV $end
$var wire 1 < Cout $end
$scope module signAdder $end
$var wire 8 & A [7:0] $end
$var wire 8 7 B [7:0] $end
$var wire 1 8 Cin $end
$var wire 8 9 Sum [7:0] $end
$var wire 1 < Cout $end
$var wire 1 = c1 $end
$var wire 1 > cx $end
$scope module lowerFour $end
$var wire 4 ? A [3:0] $end
$var wire 4 @ B [3:0] $end
$var wire 1 8 Cin $end
$var wire 4 A Sum [3:0] $end
$var wire 1 = Cout $end
$var wire 1 B c1 $end
$var wire 1 C c2 $end
$var wire 1 D c3 $end
$scope module S1 $end
$var wire 1 E A $end
$var wire 1 F B $end
$var wire 1 8 Cin $end
$var wire 1 G Sum $end
$var wire 1 B Cout $end
$var wire 1 H c1 $end
$var wire 1 I c2 $end
$var wire 1 J f $end
$scope module HAfirst $end
$var wire 1 E A $end
$var wire 1 F B $end
$var wire 1 H Sum $end
$var wire 1 I Cout $end
$upscope $end
$scope module HASecond $end
$var wire 1 H A $end
$var wire 1 8 B $end
$var wire 1 G Sum $end
$var wire 1 J Cout $end
$upscope $end
$upscope $end
$scope module S2 $end
$var wire 1 K A $end
$var wire 1 L B $end
$var wire 1 B Cin $end
$var wire 1 M Sum $end
$var wire 1 C Cout $end
$var wire 1 N c1 $end
$var wire 1 O c2 $end
$var wire 1 P f $end
$scope module HAfirst $end
$var wire 1 K A $end
$var wire 1 L B $end
$var wire 1 N Sum $end
$var wire 1 O Cout $end
$upscope $end
$scope module HASecond $end
$var wire 1 N A $end
$var wire 1 B B $end
$var wire 1 M Sum $end
$var wire 1 P Cout $end
$upscope $end
$upscope $end
$scope module S3 $end
$var wire 1 Q A $end
$var wire 1 R B $end
$var wire 1 C Cin $end
$var wire 1 S Sum $end
$var wire 1 D Cout $end
$var wire 1 T c1 $end
$var wire 1 U c2 $end
$var wire 1 V f $end
$scope module HAfirst $end
$var wire 1 Q A $end
$var wire 1 R B $end
$var wire 1 T Sum $end
$var wire 1 U Cout $end
$upscope $end
$scope module HASecond $end
$var wire 1 T A $end
$var wire 1 C B $end
$var wire 1 S Sum $end
$var wire 1 V Cout $end
$upscope $end
$upscope $end
$scope module S4 $end
$var wire 1 W A $end
$var wire 1 X B $end
$var wire 1 D Cin $end
$var wire 1 Y Sum $end
$var wire 1 = Cout $end
$var wire 1 Z c1 $end
$var wire 1 [ c2 $end
$var wire 1 \ f $end
$scope module HAfirst $end
$var wire 1 W A $end
$var wire 1 X B $end
$var wire 1 Z Sum $end
$var wire 1 [ Cout $end
$upscope $end
$scope module HASecond $end
$var wire 1 Z A $end
$var wire 1 D B $end
$var wire 1 Y Sum $end
$var wire 1 \ Cout $end
$upscope $end
$upscope $end
$upscope $end
$scope module higherFour $end
$var wire 4 ] A [7:4] $end
$var wire 4 ^ B [7:4] $end
$var wire 1 = Cin $end
$var wire 4 _ Sum [7:4] $end
$var wire 1 < Cout $end
$var wire 1 ` c1 $end
$var wire 1 a c2 $end
$var wire 1 b c3 $end
$scope module S1 $end
$var wire 1 c A $end
$var wire 1 d B $end
$var wire 1 = Cin $end
$var wire 1 e Sum $end
$var wire 1 ` Cout $end
$var wire 1 f c1 $end
$var wire 1 g c2 $end
$var wire 1 h f $end
$scope module HAfirst $end
$var wire 1 c A $end
$var wire 1 d B $end
$var wire 1 f Sum $end
$var wire 1 g Cout $end
$upscope $end
$scope module HASecond $end
$var wire 1 f A $end
$var wire 1 = B $end
$var wire 1 e Sum $end
$var wire 1 h Cout $end
$upscope $end
$upscope $end
$scope module S2 $end
$var wire 1 i A $end
$var wire 1 j B $end
$var wire 1 ` Cin $end
$var wire 1 k Sum $end
$var wire 1 a Cout $end
$var wire 1 l c1 $end
$var wire 1 m c2 $end
$var wire 1 n f $end
$scope module HAfirst $end
$var wire 1 i A $end
$var wire 1 j B $end
$var wire 1 l Sum $end
$var wire 1 m Cout $end
$upscope $end
$scope module HASecond $end
$var wire 1 l A $end
$var wire 1 ` B $end
$var wire 1 k Sum $end
$var wire 1 n Cout $end
$upscope $end
$upscope $end
$scope module S3 $end
$var wire 1 o A $end
$var wire 1 p B $end
$var wire 1 a Cin $end
$var wire 1 q Sum $end
$var wire 1 b Cout $end
$var wire 1 r c1 $end
$var wire 1 s c2 $end
$var wire 1 t f $end
$scope module HAfirst $end
$var wire 1 o A $end
$var wire 1 p B $end
$var wire 1 r Sum $end
$var wire 1 s Cout $end
$upscope $end
$scope module HASecond $end
$var wire 1 r A $end
$var wire 1 a B $end
$var wire 1 q Sum $end
$var wire 1 t Cout $end
$upscope $end
$upscope $end
$scope module S4 $end
$var wire 1 u A $end
$var wire 1 v B $end
$var wire 1 b Cin $end
$var wire 1 w Sum $end
$var wire 1 < Cout $end
$var wire 1 x c1 $end
$var wire 1 y c2 $end
$var wire 1 z f $end
$scope module HAfirst $end
$var wire 1 u A $end
$var wire 1 v B $end
$var wire 1 x Sum $end
$var wire 1 y Cout $end
$upscope $end
$scope module HASecond $end
$var wire 1 x A $end
$var wire 1 b B $end
$var wire 1 w Sum $end
$var wire 1 z Cout $end
$upscope $end
$upscope $end
$upscope $end
$upscope $end
$scope module checker $end
$var wire 1 u AsignBit $end
$var wire 1 v BsignBit $end
$var wire 1 w SumsignBit $end
$var wire 1 : OV $end
$upscope $end
$upscope $end
$upscope $end
$upscope $end
$upscope $end
$enddefinitions $end

#0
$dumpvars
0!
b11 "
b101 #
b0 $
0%
b11 &
b101 '
b0 (
b0 )
b11011 *
b10 +
b11 ,
b1 -
b0 .
1/
b0 0
b0 1
b10000 2
bx 3
bz0 4
b0 5
06
b101 7
08
b1000 9
0:
0;
0<
0=
z>
b11 ?
b101 @
b1000 A
1B
1C
1D
1E
1F
0G
0H
1I
0J
1K
0L
0M
1N
0O
1P
0Q
1R
0S
1T
0U
1V
0W
0X
1Y
0Z
0[
0\
b0 ]
b0 ^
b0 _
0`
0a
0b
0c
0d
0e
0f
0g
0h
0i
0j
0k
0l
0m
0n
0o
0p
0q
0r
0s
0t
0u
0v
0w
0x
0y
0z
$end

#5000
1!
b0 "
1%
b0 &
b1 )
b10100111 *
b1 +
b10 -
b1 .
b1 1
b101 9
b0 ?
b101 A
0B
0C
0D
0E
1G
1H
0I
0K
0N
0P
0Q
1S
0V
0W
0Y
b0 ]
0c
0i
0o
0u

#10000
0!
0%

#15000
1!
b0 #
1%
b0 '
b10 )
b100111001 *
b10 +
b1 ,
b11 -
b10 .
b10 1
b0 7
b0 9
b0 @
b0 A
0F
0G
0H
0L
0R
0S
0T
0X
b0 ^
0d
0j
0p
0v

#20000
0!
0%

#25000
1!
1%
b11 )
b0 *
b0 +
b0 ,
b0 -
b0 .
b11 1

#30000
0!
0%

#35000
1!
1%
b100 )
b100 1

#40000
0!
0%

#45000
1!
1%
b101 )
b101 1

#50000
0!
0%

#55000
1!
1%
b110 )
b110 1

#60000
0!
0%

#65000
1!
1%
b111 )
b111 1

#70000
0!
0%

#75000
1!
1%
b1000 )
b1000 1

#80000
0!
0%

#85000
1!
1%
b1001 )
b1001 1

#90000
0!
0%

#95000
1!
1%
b1010 )
b1010 1

#100000
0!
0%

#105000
1!
1%
b1011 )
b1011 1

#110000
0!
0%

#115000
1!
1%
b1100 )
b1100 1

#120000
0!
0%

#125000
1!
1%
b1101 )
b1101 1

#130000
0!
0%

#135000
1!
1%
b1110 )
b1110 1

#140000
0!
0%

#145000
1!
1%
b1111 )
b1111 1

#150000
0!
0%

#155000
1!
1%
b0 )
b11011 *
b10 +
b11 ,
b1 -
b0 1

#160000
0!
0%

#165000
1!
1%
b1 )
b10100111 *
b1 +
b10 -
b1 .
b1 1

#170000
0!
0%

#175000
1!
1%
b10 )
b100111001 *
b10 +
b1 ,
b11 -
b10 .
b10 1

#180000
0!
0%

#185000
1!
1%
b11 )
b0 *
b0 +
b0 ,
b0 -
b0 .
b11 1

#190000
0!
0%

#195000
1!
1%
b100 )
b100 1
